{
	"header": {
		"appName": "bancolombia",
		"user": "sparm2",
		"responseDateTime": "2014-07-11T12:39:51Z",
		"language": "en",
		"country": "sg",
		"serviceName": "clientStream",
		"status": "1",
		"appVersion": "1.0"
	},
	"clientStreams": [
		{
			"id": "001",
			"owner": "Jose Carlino",
			"date": "2013-01-01",
			"action": "Lorem ipsum dolor sit amet, consectetur adipiscing elit, sed do eiusmod tempor incididunt."
		},
		{
			"id": "002",
			"owner": "David Ramirez",
			"date": "2013-01-01",
			"action": "Lorem ipsum dolor sit amet, consectetur adipiscing elit, sed do eiusmod tempor incididunt."
		},
		{
			"id": "003",
			"owner": "Jose Carlino",
			"date": "2013-01-02",
			"action": "Lorem ipsum dolor sit amet, consectetur adipiscing elit, sed do eiusmod tempor incididunt."
		},
		{
			"id": "004",
			"owner": "David Ramirez",
			"date": "2013-01-02",
			"action": "Lorem ipsum dolor sit amet, consectetur adipiscing elit, sed do eiusmod tempor incididunt."
		},
		{
			"id": "005",
			"owner": "Jose Carlino",
			"date": "2013-01-02",
			"action": "Lorem ipsum dolor sit amet, consectetur adipiscing elit, sed do eiusmod tempor incididunt."
		}
	]
}