<?xml version="1.0" encoding="utf-8"?>
<!-- Generated by IcoMoon.io -->
<!DOCTYPE svg PUBLIC "-//W3C//DTD SVG 1.1//EN" "http://www.w3.org/Graphics/SVG/1.1/DTD/svg11.dtd">
<svg version="1.1" xmlns="http://www.w3.org/2000/svg" xmlns:xlink="http://www.w3.org/1999/xlink" width="139" height="128" viewBox="0 0 139 128">
<g id="icomoon-ignore">
	<line stroke-width="1" x1="" y1="" x2="" y2="" stroke="#449FDB" opacity=""></line>
</g>
	<path d="M0 64c0-3.765 2.304-7.712 5.387-10.357l-0.021-0.011 49.045-48.736c4.203-4.16 11.211-4.32 16.139-0.192 4.64 3.883 5.867 10.251 3.211 15.061l0.021 0.021-0.213 0.309c-0.299 0.47-0.619 0.918-0.971 1.344-0.128 0.149-0.256 0.288-0.384 0.437l-21.845 28.907h75.147c7.232 0 13.152 5.931 13.152 13.163v1.088c0 7.253-5.931 13.173-13.152 13.173h-74.411l21.088 27.915c0.139 0.139 0.256 0.277 0.395 0.437 0.363 0.416 0.661 0.864 0.939 1.344l0.235 0.299-0.043 0.021c2.688 4.811 1.461 11.179-3.189 15.061-4.917 4.117-11.957 3.968-16.139-0.203l-0.021 0.021-48.886-48.618c-3.126-2.837-5.483-6.848-5.483-10.485z" fill="#000000"></path>
</svg>
