<?xml version="1.0" encoding="utf-8"?>
<!-- Generator: Adobe Illustrator 16.0.4, SVG Export Plug-In . SVG Version: 6.00 Build 0)  -->
<!DOCTYPE svg PUBLIC "-//W3C//DTD SVG 1.1//EN" "http://www.w3.org/Graphics/SVG/1.1/DTD/svg11.dtd">
<svg version="1.1" id="Layer_1" xmlns="http://www.w3.org/2000/svg" xmlns:xlink="http://www.w3.org/1999/xlink" x="0px" y="0px"
	 width="122.182px" height="128px" viewBox="0 0 122.182 128" enable-background="new 0 0 122.182 128" xml:space="preserve">
<path id="path-1" d="M119.773,98.91c0,1.328,0,3.602,0,5.816c-2.381,0-4.25,0-5.817,0H96.499v17.455
	c0,2.368-3.354,5.817-5.817,5.817h-64c-5.008,0-5.818-3.449-5.818-5.817v-17.455H3.408c-1.627,0-3.835,0-5.817,0
	c0-1.816,0-4.433,0-5.816v-64c0-1.334,5.817-3.609,5.817-5.818h0.223h17.231V5.818c0-3.643,2.443-5.817,5.818-5.817h52.362
	l7.375,8.569h-0.033l3.381,3.238V11.77l6.732,5.687v11.637h17.454c3.263,0,5.817,3.892,5.817,6.666L119.773,98.91L119.773,98.91z
	 M26.682,98.91v11.637v11.635h64v-17.453v-5.817V69.818h-64V98.91z M79.044,11.637v5.818h5.817L79.044,11.637z M90.682,23.273
	H73.228V5.818H26.682v23.271h64V23.273z M113.953,34.91H3.408v64h17.454V69.818c0-2.369,3.354-5.818,5.818-5.818h64
	c2.466,0,5.817,3.449,5.817,5.818V98.91h17.454L113.953,34.91L113.953,34.91z M38.318,98.91h40.728v5.816H38.318V98.91z
	 M38.318,81.455h40.728v5.816H38.318V81.455z"/>
</svg>
