<?xml version="1.0" encoding="utf-8"?>
<!-- Generated by IcoMoon.io -->
<!DOCTYPE svg PUBLIC "-//W3C//DTD SVG 1.1//EN" "http://www.w3.org/Graphics/SVG/1.1/DTD/svg11.dtd">
<svg version="1.1" xmlns="http://www.w3.org/2000/svg" xmlns:xlink="http://www.w3.org/1999/xlink" width="146" height="128" viewBox="0 0 146 128">
<g id="icomoon-ignore">
	<line stroke-width="1" x1="" y1="" x2="" y2="" stroke="#449FDB" opacity=""></line>
</g>
	<path d="M65.81 127.762c-1.353 0-2.688 0-4.059 0-14.336-0.859-25.106-5.394-34.414-12.142-9.143-6.619-16.293-14.811-21.175-25.051-4.846-10.204-7.973-24.119-4.992-38.62 2.633-12.636 8.192-22.363 15.726-30.519 7.424-8.046 16.695-14.556 27.904-18.249 12.764-4.206 27.374-3.785 39.388 0.64 22.016 8.064 37.138 25.18 42.514 49.828 3.968 0.384 7.936-0.622 11.52 0.146 5.65 1.207 9.966 7.662 7.186 14.171-1.17 2.688-3.767 4.7-5.943 6.857-4.279 4.279-8.503 8.539-12.763 12.763-2.139 2.121-4.151 4.772-6.674 6.089-7.424 3.803-12.343-2.030-15.909-5.614-4.316-4.316-8.686-8.686-12.763-12.782-2.139-2.121-4.718-4.334-5.924-6.839-3.182-6.656 1.115-13.422 7.022-14.647 2.633-0.548 5.906 0.092 9.326-0.146-5.156-16.914-15.506-27.502-34.871-28.983-10.441-0.786-19.072 2.084-25.381 6.235-6.455 4.243-11.319 9.838-14.354 17.609-3.218 8.302-3.62 18.615-1.225 27.264 4.37 15.872 17.298 26.697 36.279 27.556 7.406 0.347 14.519-1.664 19.639-4.206 2.011-1.024 3.639-2.194 5.76-2.341 5.54-0.347 9.801 4.279 11.209 7.479 2.396 5.486 0.019 11.977-3.419 14.629-3.419 2.615-8.393 4.37-13.257 5.924-5.175 1.646-10.935 2.688-16.347 2.944z" fill="#000000"></path>
</svg>
