{

	"_version": 20141020,
	"_lang": "es",

	"my_portfolio": "Mi Cartena",
	"my_clients": "Mis Clientes",
	"management_and_profit": "Gestión y Rentabilidad",

	"today": "Hoy",
	"quick_links": "Enlaces Rápidos",
	"find_clients": "Búsqueda",
	"alert": "Alerta",

	"good_morning": "Buenos días",
	"good_afternoon": "Buenas tardes",
	"good_evening": "Buena noches",

	"welcome_page": {
		"welcome_title": "The journey of a&nbsp;thousand miles&nbsp;begins with a&nbsp;single step",
		"all_rights_reserved": "All Rights Reserved.",
		"conditions": "Condiciones",
		"privacy": "Privacidad",
		"password_request_popup": {
			"title_popup": "Solicitud Contraseña",
			"requestor": "Solicitante",
			"manager_detail": "De Manejo de Datos",
			"name": "Nombre",
			"title": "Título",
			"email": "Correo Electrónico",
			"note": "Notas"
		}
	},

	"login_form": {
		"login_title": "Hi, login to your account.",
		"id": "ID",
		"password": "Contraseña",
		"sign_in": "Inicia Sesión",
		"cant_access": "No puedo entrar a mi cuenta"
	},

	"portfolio_page": {

		"assets_page": {
			"clients_by_segment": "Clientes por Segmento"
		},

		"pipeline_page": {
			"business_notebook": "Cuaderno de Negocios"
		},

		"summary_page": {
			"aec_summary": "AEC Resumen"
		}
	},

	"clients_page": {
		"type_a_name": "Escriba un nombre",

		"document_type": "Tipo de Documento",
		"document_number": "Número del Documento",
		"segment_sector": "Sector Segmento",
		"risk_rating": "Calificación de Riesgo",

		"finance": "Finanzas",
		"info": "Info",
		"pipeline": "Tubería",
		"business_plan": "plan de Negocios",
		"activities": "Actividades",
		"notes_contacts": "Notas y Contactos",

		"info_tab": {
			"department": "Departamento",
			"neighborhood": "Barrio",
			"last_modified_date": "Fecha Ultima Modificación",
			"decision_center": "Centro De Decisión",
			"rating_history": "Historial Calificacion",
			"parents_market": "País Mercado",
			"city": "Ciudad",
			"postal_code": "Código Postal",
			"economic_subsector": "Subsector Economico",
			"need_lme": "Necesita LME?",
			"country_of_origin": "País Origen Nit",
			"first_level_management_country": "País Gerenciamineto 1er Nivel",
			"address": "Direccion",
			"creation_date": "Fecha De Creación",
			"economic_group_relationship": "Grupo Economico/relación",
			"internal_rating": "Calificacion Interna",
			"country_risk": "País Riesgo",
			"team": "Team"
		},
		"notes_contacts_tab": {
			"client_name": "Nombre Del Cliente",
			"director_finance": "Director de Finanzas",
			"phone": "Teléfono",
			"town": "Ciudad",
			"notes": "Notas",
			"address": "Dirección",
			"country": "País"
		},
		"hierarchy_popup": {
			"title_popup": "Tabla de Jerarquía",
			"chevron_co": "Chevron Corporation"

		},
		"team_popup":{
			"title_popup": "Celua",
			"primary_rm": "Primary RM",
			"whole_sale_banking": "Whole Sale Banking",
			"relationship_manage": "Relationship Manage",
			"assistant_rm": "Assistant RM"
		},
		"contact_detail_popup":{
			"title_popup": "Contacto Detalle",
			"first_name": "Nombre de pila",
			"second_name": "Segundo Nombre",
			"surname1": "Apellido 1",
			"surname2": "Apellido 2",
			"title_contact": "Título",
			"phone": "Teléfono",
			"address": "Dirección",
			"town": "Ciudad",
			"country": "País",
			"client_type": "Tipo de Cliente"

		}
	},

	"news_page": {
		"client_stream": "Corriente del Cliente",
		"view_more": "Ver más",
		"draft": "Damas",
		"pre_visit": "Pre-Visita",
		"visit": "Visita",
		"created_by": "Creado por",
		"shortcut": "Atajo"
	}
}